<?xml version="1.0" encoding="utf-8"?>
<!-- Generator: Adobe Illustrator 19.2.0, SVG Export Plug-In . SVG Version: 6.00 Build 0)  -->
<svg version="1.1" id="Layer_1" xmlns="http://www.w3.org/2000/svg" xmlns:xlink="http://www.w3.org/1999/xlink" x="0px" y="0px"
	 viewBox="0 0 16 16" style="enable-background:new 0 0 16 16;" xml:space="preserve">
<style type="text/css">
	.st0{fill:#17CE2D;}
	.st1{fill:#158E0E;}
	.st2{fill:#108777;}
	.st3{fill:#FFFFFF;}
</style>
<g>
	<g>
		<path class="st0" d="M8,15.5C6.9,14.9,1.5,12,1.5,7V2.2C1.9,1.8,3.7,0.5,8,0.5c4.3,0,6.1,1.3,6.5,1.7V7C14.5,12.5,9.1,15,8,15.5z"
			/>
		<path class="st1" d="M8,1c3.7,0,5.4,1,6,1.4V7c0,2.4-1,4.4-3.1,6.1c-1.1,0.9-2.3,1.5-2.9,1.8C6.7,14.2,2,11.4,2,7V2.4
			C2.6,2,4.3,1,8,1 M8,0C2.6,0,1,2,1,2s0,2.1,0,5c0,5.9,7,9,7,9s7-2.5,7-9c0-2.9,0-5,0-5S13.4,0,8,0L8,0z"/>
	</g>
	<polygon class="st2" points="5,6.5 4.2,7.7 7.8,10 12,3.8 10.8,3 7.3,8 	"/>
	<polygon class="st3" points="5,7.7 4.2,8.9 7.8,11.2 12,5 10.8,4.2 7.3,9.3 	"/>
</g>
</svg>
